{
	"Predeterminado" : {
		"Carpeta": "AppArchivos",
		"Entorno_Desarrollo": {
			"Localhost" : { "Activo" : true, "ip" : ["::1", "127.0.0.1"], "Plantilla" : false },
			"Externo" : { "Activo" : false }
		},
		"Criptografia" : {
			"RIJNDAEL" : "789d569f08ed7055e94b4289a4195012",
			"BLOWFISH" : "108f07b8382412612c048d07d13f814118445acd"
		},
		"Error" : {
			"404" : {
				"Activo" : false, 
				"Parametros" : { "Modulo" : false, "Controlador" : "Index", "Metodo" : "Index", "Parametros" : false }
			}
		}
	},

	"AppArchivos" : {
		"Carpeta": "AppArchivos",
		"Entorno_Desarrollo": {
			"Localhost" : { "Activo" : true, "ip" : ["::1", "127.0.0.1"], "Plantilla" : false },
			"Externo" : { "Activo" : false }
		},
		"Criptografia" : {
			"RIJNDAEL" : "789d569f08ed7055e94b4289a4195012",
			"BLOWFISH" : "108f07b8382412612c048d07d13f814118445acd"
		},
		"Error" : {
			"404" : {
				"Activo" : false,
				"Parametros" : { "Modulo" : false, "Controlador" : "Index", "Metodo" : "Index", "Parametros" : false }
			}
		}
	}

}