{
	"Predeterminado": {
		"Doctrine" : { 
			"dbname" : "archivos_db",
			"user" : "archivos_db",
			"password" : "archivos_db",
			"host" : "localhost",
			"driver" : "pdo_mysql",
			"charset" : "utf8"
		},
		"PDO" : { 
			"dns" : "mysql:host=localhost;dbname=base_datos",
			"user" : "usuario",
			"password" : "password",
			"parametros" : false
		}
	},

	"AppArchivos": {
		"Doctrine" : {
			"dbname" : "archivos_db",
			"user" : "archivos_db",
			"password" : "archivos_db",
			"host" : "localhost",
			"driver" : "pdo_mysql",
			"charset" : "utf8"
		},
		"PDO" : {
			"dns" : "mysql:host=localhost;dbname=base_datos",
			"user" : "usuario",
			"password" : "password",
			"parametros" : false
		}
	}
}